%YAML 1.1
%TAG !u! tag:unity3d.com,2011:
--- !u!1045 &1
EditorBuildSettings:
  m_ObjectHideFlags: 0
  serializedVersion: 2
  m_Scenes:
  - enabled: 1
    path: Assets/Scenes/Launch.unity
    guid: 9ca873bdb3f5c524da008c710a64586e
  - enabled: 1
    path: Assets/Scenes/Menu.unity
    guid: 1b49df019fb103c439177278d2c01b4f
  - enabled: 1
    path: Assets/Scenes/Game.unity
    guid: d496b887a831ff34b89a99302bd1a257
  - enabled: 1
    path: Assets/Scenes/Buzzer.unity
    guid: 25feff31452ab8940a14b3622ea6d6c2
  m_configObjects: {}
